{
  "layers": [
    "tilelayers/basemap-esri-ocean.json",
    "tilelayers/basemap-osm.json",
    "tilelayers/chart-nautical-ucsd-hawaii1.json",
    "widgets/ais_receiver.json",
    "missions/umich_iver_mission.json",
    "missions/whoi-glider-mission.json",
    "missions/acfr_sirius_mission.json",
    "targets/acfr-ship-falkor.json",
    "targets/android-ship-soibux.json",
    "targets/ais-ship-soiatreyu.json",
    "targets/acfr-nga.json",
    "targets/acfr-nga.usbl.json",
    "targets/umich-iver.json",
    "targets/umich-iver.usbl.json",
    "targets/whoi-slocum.json",
    "targets/acfr-nav-orangeBox.json",
    "targets/acfr-sirius.usbl.json",
    "targets/acfr-sirius.json",
    "targets/uri-lfloat.json",
    "targets/uri-lfloat.usbl.json",
    "targets/acfr-holt.json",
    "targets/acfr-holt.usbl.json",
    "targets/acfr-wamv.json",
    "widgets/iframe-soi-cor2-info.json",
    "tilelayers/bathy-hawaii_auau-overlay.json",
    "widgets/soi-falkor-shedule.json"
  ],
  "type": "server",
  "license": "gUhd9TxpnQppnZVAf7cv9lvi/hr39O6Ydni0QzJYPkbMrOiB/WssnwxQEmRvqevc",
  "settings": {
    "remotepush": {},
    "showsettings": false,
    "datalogger": {}
  }
}
