{
  "type": "layer-mission",
  "settings": {
    "name": "URI Float Images",
    "filepath": "/useful/path/to/code/or/missiondir",
    "url": "/get_mission/platformdata.api.Platform/uri.floatimages",
    "interval": 86400000,
    "clearold": true
  }
}
