{
  "type": "layer-target",
  "settings": {
    "color": "green",
    "interval": 1000,
    "maxtracklen": 300,
    "name": "APIIverSim",
    "options": {
      "showdash": true,
      "showrph": true,
      "showbatt": true,
      "showtrack": true,
      "setstate": true,
      "autotrack": false
    },
    "size": {"length": 10, "loffset": 5, "width": 2},
    "url": "data/platformdata.api.Platform/AUVSTAT.IVERSIM",
    "commandurl": ""
  }
}
