{
  "type": "layer-target",
  "settings": {
    "color": "green",
    "interval": 1000,
    "maxtracklen": 100,
    "name": "HOLT_USBL",
    "options": {
      "showdash": true,
      "showrph": false,
      "showbatt": false,
      "showtrack": true,
      "setstate": true,
      "autotrack": true
    },
    "size": 2,
    "url": "data/platformdata.api.Platform/USBL_FIX.HOLT",
    "commandurl": "send_command/platformdata.lcmbased.Platform/USBL_FIX.HOLT"
  }
}
