{
  "type": "layer-target",
  "settings": {
    "color": "pink",
    "interval": 1000,
    "maxtracklen": 300,
    "name": "AUV Nextgen",
    "options": {
      "showdash": true,
      "showrph": true,
      "showbatt": true,
      "showtrack": true,
      "setstate": true,
      "autotrack": false
    },
    "size": 4,
    "url": "data/platformdata.api.Platform/NGA.AUVSTAT",
    "commandurl": "send_command/platformdata.api.Platform/NGA?ip=10.23.14.105&port=8081&template=forms/acfr-send-command.html"
  }
}