{
  "type": "layer-target",
  "settings": {
    "color": "green",
    "interval": 1000,
    "maxtracklen": 100,
    "name": "AUV Demo",
    "options": {
      "showdash": true,
      "showrph": true,
      "showbatt": true,
      "showtrack": true,
      "setstate": true,
      "autotrack": false
    },
    "size": 4,
    "url": "data/platformdata.api.Platform/test",
    "commandurl": "send_command/platformdata.api.Platform/test?ip=10.23.14.105&port=8081&template=forms/send-command.html"
  }
}


