{
  "type": "layer-target",
  "settings": {
    "color": "blue",
    "interval": 1000,
    "maxtracklen": 100,
    "name": "AUV UMIver USBL",
    "options": {
      "showdash": false,
      "showrph": false,
      "showbatt": true,
      "showtrack": true,
      "setstate": false,
      "autotrack": false
    },
    "size": 3,
    "url": "data/platformdata.api.Platform/FALKOR.USBL_FIX.DROPIVER",
    "commandurl": ""
  }
}
