{
  "type": "widget",
  "settings": {
    "name": "GeoTiff Inspector",
    "css": "top:10px; right: 55px; height:170px; width:185px;",
    "url": "/templates/plugins/geotiff_click_info.html",
    "show": false,
    "icon": "map-marker",
    "type": "draggable"
  }
}