{
  "type": "widget",
  "settings": {
    "name": "Profile from GeoTiff",
    "css": "top:10px; right: 55px; height:100px; width:185px;",
    "url": "/templates/plugins/geotiff_click_profile.html",
    "show": false,
    "icon": "picture-o",
    "type": "draggable"
  }
}