{
  "type": "widget",
  "settings": {
    "name": "Schedule",
    "url": "https://calendar.google.com/calendar/embed?showTitle=0&amp;showNav=0&amp;showPrint=0&amp;showCalendars=0&amp;mode=AGENDA&amp;height=600&amp;wkst=1&amp;bgcolor=%23ffffff&amp;src=od849bidcinegqm22nsq0u8qs0%40group.calendar.google.com&amp;color=%23711616",
    "show": false,
    "icon": "calendar",
    "css": "top:10px; right: 55px; width:400px; height: 380px;",
    "type": "iframe-draggable"
  }
}